%YAML 1.1
%TAG !u! tag:unity3d.com,2011:
--- !u!114 &11400000
MonoBehaviour:
  m_ObjectHideFlags: 0
  m_CorrespondingSourceObject: {fileID: 0}
  m_PrefabInternal: {fileID: 0}
  m_GameObject: {fileID: 0}
  m_Enabled: 1
  m_EditorHideFlags: 0
  m_Script: {fileID: 11500000, guid: e548f3a00778133498ebb0312db83d4d, type: 3}
  m_Name: Mill
  m_EditorClassIdentifier: 
  Name: Watermolen
  Cost: 12
  m_PlacedSprite: {fileID: 21300000, guid: 427b47cfacc3a5f43a970d47c077ad8b, type: 3}
  m_HotbarSprite: {fileID: 21300000, guid: 427b47cfacc3a5f43a970d47c077ad8b, type: 3}
  m_PlacedSpriteAnimation: {fileID: 0}
  m_HotbarSpriteAnimation: {fileID: 0}
